MINI PROJECT 01 – STA 9750 Submission Material
…
Create a new variable called is_cuny that groups all CUNY schools.

Show the code

IPEDS <- IPEDS |>
  mutate(is_cuny = str_detect(institution_name, "CUNY"))

Show the code

IPEDS |>
  filter(is_cuny) |>
  distinct(institution_name) |>
  arrange(institution_name)

# A tibble: 23 × 1
   institution_name                           
   <chr>                                      
 1 CUNY Bernard M Baruch College              
 2 CUNY Borough of Manhattan Community College
 3 CUNY Bronx Community College               
 4 CUNY Brooklyn College                      
 5 CUNY City College                          
 6 CUNY College of Staten Island              
 7 CUNY Graduate School and University Center 
 8 CUNY Hostos Community College              
 9 CUNY Hunter College                        
10 CUNY John Jay College of Criminal Justice  
# ℹ 13 more rows
…
IPEDS <- IPEDS |>
  mutate(
    is_calpublic =
      str_detect(institution_name, "University of California") |
      str_detect(institution_name, "California State University")
  )

Show the code

IPEDS |>
  filter(is_calpublic) |>
  distinct(institution_name) |>
  arrange(institution_name)

# A tibble: 31 × 1
   institution_name                            
   <chr>                                       
 1 Bethesda University of California           
 2 California State University Maritime Academy
 3 California State University-Bakersfield     
 4 California State University-Channel Islands 
 5 California State University-Chico           
 6 California State University-Dominguez Hills 
 7 California State University-East Bay        
 8 California State University-Fresno          
 9 California State University-Fullerton       
10 California State University-Long Beach      
# ℹ 21 more rows
…
Number of distinct institutions appear in this dataset is determined using the institution id rather than the institution name because the names may contain inconsistencies or formatting errors.

Show the code

IPEDS |>
  distinct(institution_id, institution_name) |>
  count(institution_id) |>
  filter(n > 1)

# A tibble: 2,175 × 2
   institution_id     n
            <dbl> <int>
 1         100706     2
 2         100937     2
 3         101073     2
 4         101161     2
 5         101286     2
 6         101462     3
 7         101569     2
 8         101736     3
 9         101958     3
10         102313     2
# ℹ 2,165 more rows
…
