MINI PROJECT 02 - American Time Use Survey (ATUS) – STA 9750 Submission Material
…
How many children under the age of 18 live in the respondent’s home?

Show the code

rost |>
  filter(age<18) |>
  group_by(participant_id) |>
  summarize(n_children_u18 = n(), .groups = "drop")

# A tibble: 109,273 × 2
   participant_id n_children_u18
            <dbl>          <int>
 1        2.00e13              2
 2        2.00e13              2
 3        2.00e13              2
 4        2.00e13              1
 5        2.00e13              1
 6        2.00e13              1
 7        2.00e13              3
 8        2.00e13              4
 9        2.00e13              1
10        2.00e13              1
# ℹ 109,263 more rows
…
Total Respondents

252,808.00

Americans enjoy watching a variety of sports. How many different sports does ATUS ask about watching as a “Level 3” task?

Show the code

activity_codes |>
  filter(str_detect(str_to_lower(task_level3), "watching")) |>
  distinct(task_level3) |>
  arrange(task_level3)

# A tibble: 32 × 1
   task_level3                          
   <chr>                                
 1 Watching aerobics                    
 2 Watching baseball                    
 3 Watching basketball                  
 4 Watching biking                      
 5 Watching billiards                   
 6 Watching boating                     
 7 Watching bowling                     
 8 Watching climbing, spelunking, caving
 9 Watching dancing                     
10 Watching equestrian sports           
# ℹ 22 more rows
…
Caring for and Helping Household Members
0.13

Telephone Calls
0.08

How much time per day do Americans spend on your four favorite activities and how does this vary by age group?

Show the code

cps_full_data |>
  distinct(task_level2
           )

# A tibble: 103 × 1
   task_level2                                         
   <chr>                                               
 1 Participating in Sports, Exercise, or Recreation    
 2 Grooming                                            
 3 Sleeping                                            
 4 Relaxing and Leisure                                
 5 Eating and Drinking                                 
 6 Caring for and Helping Household Children           
 7 Travel Related to Socializing, Relaxing, and Leisure
 8 Socializing and Communicating                       
 9 Travel Related to Consumer Purchases                
10 Shopping (store, telephone, internet)               
# ℹ 93 more rows
…
Average daily childcare time per child by family size.

Show the code

cps_full_data |>
 
  filter(
    str_detect(str_to_lower(task_level3), "children")) |>
  distinct(task_level3)

# A tibble: 36 × 1
   task_level3                                         
   <chr>                                               
 1 Physical care for household children                
 2 Attending household children's events               
 3 Reading to or with household children               
 4 Playing with household children, not sports         
 5 Picking up or dropping off household children       
 6 Homework (household children)                       
 7 Waiting associated with household children's health 
 8 Physical care for non-household children            
 9 Organization and planning for non-household children
10 Organization and planning for household children    
# ℹ 26 more rows
…
